 __        __             _             ____                       _                  _        ___     __ 
 \ \      / /   ___    __| |   ___     |  _ \   _ __    ___     __| |  _   _    ___  | |_     / _ \   / _|
  \ \ /\ / /   / _ \  / _` |  / _ \    | |_) | | '__|  / _ \   / _` | | | | |  / __| | __|   | | | | | |_ 
   \ V  V /   |  __/ | (_| | | (_) |   |  __/  | |    | (_) | | (_| | | |_| | | (__  | |_    | |_| | |  _|
    \_/\_/     \___|  \__,_|  \___/    |_|     |_|     \___/   \__,_|  \__,_|  \___|  \__|    \___/  |_|  
                                                                                                          
 _            ___  _                _  _         _                _  
| |          / __)(_)              | |(_)       (_)   _          | | 
| | ____   _| |__  _  _   _      __| | _   ____  _  _| |_  _____ | | 
| ||  _ \ (_   __)| |( \ / )    / _  || | / _  || |(_   _)(____ || | 
| || | | |  | |   | | ) X (  _ ( (_| || |( (_| || |  | |_ / ___ || | 
|_||_| |_|  |_|   |_|(_/ \_)(_) \____||_| \___ ||_|   \__)\_____| \_)
                                         (_____|                     